\addvspace {10\p@ }
\addvspace {10\p@ }
\contentsline {figure}{\numberline {2.1}{\ignorespaces Merkle tree for 8 transactions}}{14}{figure.2.1}
\addvspace {10\p@ }
\addvspace {10\p@ }
\addvspace {10\p@ }
\contentsline {figure}{\numberline {5.1}{\ignorespaces Default view when loading the interface}}{38}{figure.5.1}
\contentsline {figure}{\numberline {5.2}{\ignorespaces View Blockchain window}}{39}{figure.5.2}
\contentsline {figure}{\numberline {5.3}{\ignorespaces Send Funds window}}{40}{figure.5.3}
\contentsline {figure}{\numberline {5.4}{\ignorespaces Client view with wallet loaded}}{40}{figure.5.4}
\addvspace {10\p@ }
\contentsline {figure}{\numberline {6.1}{\ignorespaces Wallet ID already exists error message}}{42}{figure.6.1}
\contentsline {figure}{\numberline {6.2}{\ignorespaces Wallet with this ID does not exist error message}}{42}{figure.6.2}
\contentsline {figure}{\numberline {6.3}{\ignorespaces Failed to create transaction error message}}{42}{figure.6.3}
\addvspace {10\p@ }
