\relax 
\providecommand\hyper@newdestlabel[2]{}
\bibstyle{IEEEtran}
\providecommand\HyperFirstAtBeginDocument{\AtBeginDocument}
\HyperFirstAtBeginDocument{\ifx\hyper@anchor\@undefined
\global\let\oldcontentsline\contentsline
\gdef\contentsline#1#2#3#4{\oldcontentsline{#1}{#2}{#3}}
\global\let\oldnewlabel\newlabel
\gdef\newlabel#1#2{\newlabelxx{#1}#2}
\gdef\newlabelxx#1#2#3#4#5#6{\oldnewlabel{#1}{{#2}{#3}}}
\AtEndDocument{\ifx\hyper@anchor\@undefined
\let\contentsline\oldcontentsline
\let\newlabel\oldnewlabel
\fi}
\fi}
\global\let\hyper@last\relax 
\gdef\HyperFirstAtBeginDocument#1{#1}
\providecommand\HyField@AuxAddToFields[1]{}
\providecommand\HyField@AuxAddToCoFields[2]{}
\providecommand \oddpage@label [2]{}
\citation{nielsen2002quantum}
\citation{vandersypen2001experimental}
\citation{xu2012quantum}
\citation{albash2015reexamining}
\citation{chen2016report}
\citation{schlosshauer2007decoherence}
\@writefile{toc}{\contentsline {chapter}{\numberline {1}Contextual background}{1}{chapter.1}}
\@writefile{lof}{\addvspace {10\p@ }}
\@writefile{lot}{\addvspace {10\p@ }}
\@writefile{loa}{\addvspace {10\p@ }}
\@writefile{toc}{\contentsline {section}{\numberline {1.1}Quantum Computing}{1}{section.1.1}}
\citation{mosca2018cybersecurity}
\citation{shor1999polynomial}
\citation{nakamoto2008bitcoin}
\citation{morris2017bitcoin}
\citation{marketcap}
\@writefile{toc}{\contentsline {section}{\numberline {1.2}Cryptocurrency}{2}{section.1.2}}
\citation{marketcap}
\citation{smith2017bitcoin}
\@writefile{toc}{\contentsline {section}{\numberline {1.3}Summary}{4}{section.1.3}}
\citation{okupski2014bitcoin}
\citation{dobbertin1996ripemd}
\citation{fips180}
\@writefile{toc}{\contentsline {chapter}{\numberline {2}Cryptocurrency Design}{5}{chapter.2}}
\@writefile{lof}{\addvspace {10\p@ }}
\@writefile{lot}{\addvspace {10\p@ }}
\@writefile{loa}{\addvspace {10\p@ }}
\@writefile{toc}{\contentsline {section}{\numberline {2.1}Hash Functions}{5}{section.2.1}}
\citation{katz2014introduction}
\citation{mendel2006collision}
\citation{nakamoto2008bitcoin}
\citation{back2002hashcash}
\@writefile{toc}{\contentsline {section}{\numberline {2.2}Proof of Work}{6}{section.2.2}}
\citation{okupski2014bitcoin}
\citation{okupski2014bitcoin}
\citation{sha256coins}
\citation{wood2014ethereum}
\citation{x11asic}
\citation{scrypt}
\citation{de2018bitcoin}
\citation{kiayias2017ouroboros}
\@writefile{toc}{\contentsline {subsection}{\numberline {2.2.1}Alternatives to Proof-of-Work}{7}{subsection.2.2.1}}
\citation{zheng2017overview}
\citation{lamport1982byzantine}
\citation{nakamoto2008bitcoin}
\@writefile{toc}{\contentsline {section}{\numberline {2.3}Consensus}{8}{section.2.3}}
\citation{lin2017survey}
\citation{51attack}
\citation{king2012ppcoin}
\@writefile{toc}{\contentsline {subsection}{\numberline {2.3.1}51\% Attacks}{9}{subsection.2.3.1}}
\citation{bitcoindeveloper}
\citation{bitcoinsource}
\@writefile{toc}{\contentsline {section}{\numberline {2.4}Transactions}{10}{section.2.4}}
\@writefile{toc}{\contentsline {subsection}{\numberline {2.4.1}Transaction Inputs}{10}{subsection.2.4.1}}
\@writefile{toc}{\contentsline {subsection}{\numberline {2.4.2}Transaction Outputs}{11}{subsection.2.4.2}}
\@writefile{toc}{\contentsline {subsection}{\numberline {2.4.3}Scripts}{11}{subsection.2.4.3}}
\@writefile{toc}{\contentsline {subsection}{\numberline {2.4.4}Pay-to-Pubkey-Hash Transactions}{11}{subsection.2.4.4}}
\@writefile{toc}{\contentsline {subsection}{\numberline {2.4.5}Other Transaction Types}{11}{subsection.2.4.5}}
\@writefile{toc}{\contentsline {subsubsection}{Pay-to-Pubkey Transactions}{11}{section*.5}}
\citation{hashreward}
\citation{sec}
\citation{mayer2016ecdsa}
\@writefile{toc}{\contentsline {subsubsection}{Pay-to-Script-Hash}{12}{section*.6}}
\@writefile{toc}{\contentsline {subsection}{\numberline {2.4.6}Signatures}{12}{subsection.2.4.6}}
\citation{merkle1979secrecy}
\@writefile{toc}{\contentsline {section}{\numberline {2.5}Merkle Trees}{13}{section.2.5}}
\@writefile{lof}{\contentsline {figure}{\numberline {2.1}{\ignorespaces Merkle tree for 8 transactions}}{14}{figure.2.1}}
\newlabel{merkletree}{{2.1}{14}{Merkle tree for 8 transactions}{figure.2.1}{}}
\citation{chen2016report}
\citation{shor1999polynomial}
\citation{roetteler2017quantum}
\@writefile{toc}{\contentsline {chapter}{\numberline {3}Effects of Quantum Computing on Cryptocurrencies}{15}{chapter.3}}
\@writefile{lof}{\addvspace {10\p@ }}
\@writefile{lot}{\addvspace {10\p@ }}
\@writefile{loa}{\addvspace {10\p@ }}
\@writefile{toc}{\contentsline {section}{\numberline {3.1}Shor's Algorithm}{15}{section.3.1}}
\citation{grover1996fast}
\citation{campagna2015quantum}
\citation{bernstein2009cost}
\@writefile{toc}{\contentsline {section}{\numberline {3.2}Grover's Algorithm}{16}{section.3.2}}
\@writefile{toc}{\contentsline {section}{\numberline {3.3}Effects on Bitcoin}{16}{section.3.3}}
\@writefile{toc}{\contentsline {subsection}{\numberline {3.3.1}Shor's Algorithm}{16}{subsection.3.3.1}}
\citation{okupski2014bitcoin}
\citation{coinsinexposed}
\citation{alonsozero}
\@writefile{toc}{\contentsline {subsection}{\numberline {3.3.2}Grover's Algorithm}{18}{subsection.3.3.2}}
\@writefile{toc}{\contentsline {section}{\numberline {3.4}Effects on other Cryptocurrencies}{18}{section.3.4}}
\citation{merkle1979secrecy}
\citation{lamport1979constructing}
\@writefile{toc}{\contentsline {chapter}{\numberline {4}Post Quantum Cryptography}{19}{chapter.4}}
\@writefile{lof}{\addvspace {10\p@ }}
\@writefile{lot}{\addvspace {10\p@ }}
\@writefile{loa}{\addvspace {10\p@ }}
\@writefile{toc}{\contentsline {section}{\numberline {4.1}Hash-based}{19}{section.4.1}}
\citation{katz2014introduction}
\citation{merkle1979secrecy}
\citation{hulsing2013w}
\citation{hulsing2015hash}
\citation{ajtai1996generating}
\@writefile{toc}{\contentsline {section}{\numberline {4.2}Lattice-based}{22}{section.4.2}}
\citation{babai1986lovasz}
\citation{nguyen1999cryptanalysis}
\citation{hoffstein2003ntrusign}
\citation{silverman2006introduction}
\citation{regev2010learning}
\citation{mceliece1978public}
\citation{bernstein2008attacking}
\@writefile{toc}{\contentsline {section}{\numberline {4.3}Code-based}{25}{section.4.3}}
\citation{niederreiter}
\citation{berger2009reducing}
\citation{courtois2000efficient}
\@writefile{toc}{\contentsline {section}{\numberline {4.4}Multivariate-based}{26}{section.4.4}}
\citation{gheorghiu2017quantum}
\@writefile{toc}{\contentsline {section}{\numberline {4.5}Supersingular Isogeny-based}{27}{section.4.5}}
\@writefile{toc}{\contentsline {section}{\numberline {4.6}Comparison}{27}{section.4.6}}
\citation{chalkias2018blockchained}
\citation{de2018bitcoin}
\@writefile{toc}{\contentsline {chapter}{\numberline {5}Blockchain design and implementation}{29}{chapter.5}}
\@writefile{lof}{\addvspace {10\p@ }}
\@writefile{lot}{\addvspace {10\p@ }}
\@writefile{loa}{\addvspace {10\p@ }}
\@writefile{toc}{\contentsline {section}{\numberline {5.1}Blocks and Transactions}{30}{section.5.1}}
\newlabel{txoutlabel}{{5.1}{31}{Blocks and Transactions}{section.5.1}{}}
\@writefile{toc}{\contentsline {section}{\numberline {5.2}Signatures}{32}{section.5.2}}
\citation{bindel2018submission}
\citation{bernstein2009cost}
\citation{guo2010fair}
\citation{merkleattack}
\@writefile{toc}{\contentsline {section}{\numberline {5.3}Transaction Pool}{35}{section.5.3}}
\@writefile{toc}{\contentsline {section}{\numberline {5.4}Hash and Merkle root}{35}{section.5.4}}
\@writefile{toc}{\contentsline {section}{\numberline {5.5}JSON and Database Storage}{36}{section.5.5}}
\@writefile{toc}{\contentsline {section}{\numberline {5.6}Wallet}{37}{section.5.6}}
\@writefile{toc}{\contentsline {section}{\numberline {5.7}User Interface}{37}{section.5.7}}
\@writefile{lof}{\contentsline {figure}{\numberline {5.1}{\ignorespaces Default view when loading the interface}}{38}{figure.5.1}}
\newlabel{gui0}{{5.1}{38}{Default view when loading the interface}{figure.5.1}{}}
\@writefile{lof}{\contentsline {figure}{\numberline {5.2}{\ignorespaces View Blockchain window}}{39}{figure.5.2}}
\newlabel{gui1}{{5.2}{39}{View Blockchain window}{figure.5.2}{}}
\@writefile{lof}{\contentsline {figure}{\numberline {5.3}{\ignorespaces Send Funds window}}{40}{figure.5.3}}
\newlabel{gui2}{{5.3}{40}{Send Funds window}{figure.5.3}{}}
\@writefile{lof}{\contentsline {figure}{\numberline {5.4}{\ignorespaces Client view with wallet loaded}}{40}{figure.5.4}}
\newlabel{gui3}{{5.4}{40}{Client view with wallet loaded}{figure.5.4}{}}
\@writefile{toc}{\contentsline {chapter}{\numberline {6}Evaluation}{41}{chapter.6}}
\@writefile{lof}{\addvspace {10\p@ }}
\@writefile{lot}{\addvspace {10\p@ }}
\@writefile{loa}{\addvspace {10\p@ }}
\@writefile{toc}{\contentsline {section}{\numberline {6.1}Unit tests}{41}{section.6.1}}
\@writefile{toc}{\contentsline {section}{\numberline {6.2}User Interface testing}{41}{section.6.2}}
\@writefile{toc}{\contentsline {subsection}{\numberline {6.2.1}Wallet}{41}{subsection.6.2.1}}
\@writefile{lof}{\contentsline {figure}{\numberline {6.1}{\ignorespaces Wallet ID already exists error message}}{42}{figure.6.1}}
\newlabel{wie}{{6.1}{42}{Wallet ID already exists error message}{figure.6.1}{}}
\@writefile{lof}{\contentsline {figure}{\numberline {6.2}{\ignorespaces Wallet with this ID does not exist error message}}{42}{figure.6.2}}
\newlabel{wne}{{6.2}{42}{Wallet with this ID does not exist error message}{figure.6.2}{}}
\@writefile{toc}{\contentsline {subsection}{\numberline {6.2.2}Transactions}{42}{subsection.6.2.2}}
\@writefile{lof}{\contentsline {figure}{\numberline {6.3}{\ignorespaces Failed to create transaction error message}}{42}{figure.6.3}}
\newlabel{ftx}{{6.3}{42}{Failed to create transaction error message}{figure.6.3}{}}
\@writefile{toc}{\contentsline {subsection}{\numberline {6.2.3}Blockchain}{45}{subsection.6.2.3}}
\@writefile{toc}{\contentsline {subsection}{\numberline {6.2.4}Database}{46}{subsection.6.2.4}}
\@writefile{toc}{\contentsline {section}{\numberline {6.3}Evaluation of technology choices}{46}{section.6.3}}
\citation{alonsozero}
\@writefile{toc}{\contentsline {section}{\numberline {6.4}Limitations}{47}{section.6.4}}
\@writefile{toc}{\contentsline {section}{\numberline {6.5}Known issues}{48}{section.6.5}}
\@writefile{toc}{\contentsline {section}{\numberline {6.6}Comparison to alternatives}{48}{section.6.6}}
\@writefile{toc}{\contentsline {section}{\numberline {6.7}Incorporation of this design in current cryptocurrencies}{50}{section.6.7}}
\@writefile{toc}{\contentsline {chapter}{\numberline {7}Conclusion}{51}{chapter.7}}
\@writefile{lof}{\addvspace {10\p@ }}
\@writefile{lot}{\addvspace {10\p@ }}
\@writefile{loa}{\addvspace {10\p@ }}
\bibdata{project}
\bibcite{nielsen2002quantum}{1}
\bibcite{vandersypen2001experimental}{2}
\bibcite{xu2012quantum}{3}
\bibcite{albash2015reexamining}{4}
\bibcite{chen2016report}{5}
\bibcite{schlosshauer2007decoherence}{6}
\bibcite{mosca2018cybersecurity}{7}
\bibcite{shor1999polynomial}{8}
\bibcite{nakamoto2008bitcoin}{9}
\bibcite{morris2017bitcoin}{10}
\bibcite{marketcap}{11}
\bibcite{smith2017bitcoin}{12}
\bibcite{okupski2014bitcoin}{13}
\bibcite{dobbertin1996ripemd}{14}
\bibcite{fips180}{15}
\bibcite{katz2014introduction}{16}
\bibcite{mendel2006collision}{17}
\bibcite{back2002hashcash}{18}
\bibcite{sha256coins}{19}
\bibcite{wood2014ethereum}{20}
\bibcite{x11asic}{21}
\bibcite{scrypt}{22}
\bibcite{de2018bitcoin}{23}
\bibcite{kiayias2017ouroboros}{24}
\bibcite{zheng2017overview}{25}
\bibcite{lamport1982byzantine}{26}
\bibcite{lin2017survey}{27}
\bibcite{51attack}{28}
\bibcite{king2012ppcoin}{29}
\bibcite{bitcoindeveloper}{30}
\bibcite{bitcoinsource}{31}
\bibcite{hashreward}{32}
\bibcite{sec}{33}
\bibcite{mayer2016ecdsa}{34}
\bibcite{merkle1979secrecy}{35}
\bibcite{roetteler2017quantum}{36}
\bibcite{grover1996fast}{37}
\bibcite{campagna2015quantum}{38}
\bibcite{bernstein2009cost}{39}
\bibcite{coinsinexposed}{40}
\bibcite{alonsozero}{41}
\bibcite{lamport1979constructing}{42}
\bibcite{hulsing2013w}{43}
\bibcite{hulsing2015hash}{44}
\bibcite{ajtai1996generating}{45}
\bibcite{babai1986lovasz}{46}
\bibcite{nguyen1999cryptanalysis}{47}
\bibcite{hoffstein2003ntrusign}{48}
\bibcite{silverman2006introduction}{49}
\bibcite{regev2010learning}{50}
\bibcite{mceliece1978public}{51}
\bibcite{bernstein2008attacking}{52}
\bibcite{niederreiter}{53}
\bibcite{berger2009reducing}{54}
\bibcite{courtois2000efficient}{55}
\bibcite{gheorghiu2017quantum}{56}
\bibcite{chalkias2018blockchained}{57}
\bibcite{bindel2018submission}{58}
\bibcite{guo2010fair}{59}
\bibcite{merkleattack}{60}
